INDEX VERSION 1.131+D:\Cognizant\microservices\.metadata\.plugins\org.eclipse.jdt.core
1036553749.index
1459297009.index
497507031.index
107540832.index
319524046.index
3604917317.index
695519873.index
628159925.index
1289320443.index
1747969526.index
2987382942.index
2170176295.index
3946611079.index
108051163.index
433817461.index
1506249448.index
1388822732.index
1714353502.index
3206570887.index
